0,1,2,3,4,5,6,7,8,9,10,11,12,13
1,,,,,,,,,,,,,
2,,,,,,,,,,,,,
3,,,,,,,,,,,,,
4,,,,,,,,,,,,,
5,,,,,,,,,,,,,
6,,,,,,,,,,,,,
7,,s,s,s,s,s,s,s,s,s,s,s,
8,,s,,,,,,,,,,s,
9,,s,,s,s,s,s,s,s,s,,s,
10,,s,,s,,,,,,s,,s,
11,,s,,s,,s,s,s,,s,,s,
12,,s,,s,,s,,s,,s,,s,
13,,s,,s,,s,s,s,,s,,s,
14,,s,,s,,,,,,s,,s,
15,,s,,s,s,s,s,s,s,s,,s,
16,,s,,,,,,,,,,s,
17,,s,s,s,s,s,s,s,s,s,s,s,
18,,,,,,,,,,,,,
19,,,,,,,,,,,,,
20,,,,,,,,,,,,,
21,,,,,,,,,,,,,
22,,,,,,,,,,,,,
23,,,,,,,,,,,,,
24,,,,,,,,,,,,,
25,,,,,,,,,,,,,
26,,,,,,,,,,,,,
27,,,,,,,,,,,,,
28,,,,,,,,,,,,,
29,,,,,,,,,,,,,
30,,,,,,,,,,,,,
31,,,,,,,,,,,,,
32,,,,,,,,,,,,,
