0,1,2,3,4,5,6,7,8,9,10,11,12,13
1,,,,,,,,,,,,,
2,,,,,,,,,,,,,
3,,,,,,,,,,,,,
4,,gl,,,,,,,,,,,
5,,,,,,,,,,,,,
6,,gl,,,,,,,,,,,
7,,gl,,,,,,,,,,,
8,,gl,,,,,,,,,,,
9,,gl,,,,,,b,,,,,
10,,gl,,,,,b,c,b,,,,
11,,gl,,,,b,c,w,c,b,,,
12,,gl,,,b,c,w,c,w,c,b,,
13,,gl,,b,c,w,c,s,c,w,c,b,
14,,gl,,,b,c,w,c,w,c,b,,
15,,gl,,,,b,c,w,c,b,,,
16,,gl,,,,,b,c,b,,,,
17,,gl,,,,,,b,,,,,
18,,gl,,,,,,,,,,,
19,,gl,,,,,,,,,,,
20,,gl,,,,,,,,,,,
21,,gl,,,,,,,,,,,
22,,gl,gl,gl,gl,gl,gl,gl,gl,gl,gl,gl,gl
23,,,,,,,,,,,,,
24,,,,,,,,,,,,,
25,,,,,,,,,,,,,
26,,,,,,,,,,,,,
27,,,,,,,,,,,,,
28,,,,,,,,,,,,,
29,,,,,,,,,,,,,
30,,,,,,,,,,,,,
31,,,,,,,,,,,,,
32,,,,,,,,,,,,,
